42 34 1 2 42 35 34 3 61 4 35 42 36 28 2 42 37 36 3 47 38 37 29 61 5 38 42 39 30 1 42 40 39 3 47 41 40 31 61 6 41 42 42 32 1 42 43 42 2 47 44 43 33 61 7 44 61 8 26 42 45 2 3 61 9 45 42 50 1 3 61 10 50 61 11 34 61 12 26 61 13 26 42 51 28 3 47 52 51 29 61 14 52 47 54 36 29 61 15 54 61 16 26 42 46 30 3 47 47 46 31 61 17 47 61 18 26 47 55 39 31 61 19 55 61 20 26 42 48 32 2 47 49 48 33 61 21 49 47 53 42 33 61 22 53 61 23 26 X
TotalRoomNeeded 56;
NVAR 4 0;
NPATHVAR 0 4;
NPAR 0 4 4;
NFCN 4 4 8 24;
NCON 2 24;
NNUM 8 26;
SUBFCN 0 34 34 34;
NUMINST 148;
CMPLX 24;
VARGPS 1;
 3;
RANDINDEX 0;
INSTCOUNT 0 0 56 56 148;
 0 11 11 26 26 41 41 56 56 76 76 100 100 124 124 148;
X diff complete

